{
    "parameters": {
        "token": "76cbb4c882db8f6ca373f05eabd856d3",
        "index_col": ["Month", "Position"],
        "verbosity": "low",
        "output_html": true,
        "debug": true
    },
    "storage": {
        "output": {
            "tables": [
                { "source": "description.csv" }
            ],
            "files": [{
                "source": "narrative-temperatures.html",
                "tags": ["narrative-science", "narrative", "html"],
                "is_public": false,
                "is_permanent": true
            }]
        },
        "input": {
            "tables": [
                { "destination": "temperatures_dual.csv" }
            ]
        }
    }
}