{
    "metadata": {
        "platform": "keboola"
    },
    "api_version": 2,
    "data": {
        "dimensions": [{
            "name": "Year/Month",
            "id": "jSbKfT"
        }],
        "measures": [{
            "id": "UKMDBPJ",
            "name": "revenue"
        }],
        "rows": [
            [{
                    "value": "Jan-06",
                    "id": 1
                },
                {
                    "value": 10,
                    "id": 2
                }
            ],
            [{
                    "value": "Feb-06",
                    "id": 3
                },
                {
                    "value": 20,
                    "id": 4
                }
            ],
            [{
                    "value": "Mar-06",
                    "id": 5
                },
                {
                    "value": 30,
                    "id": 6
                }
            ],
            [{
                    "value": "Apr-06",
                    "id": 7
                },
                {
                    "value": 12,
                    "id": 8
                }
            ]
        ]
    },
    "configuration": {
        "authoring": {
            "format": "bullets",
            "verbosity": "high",
            "complementary_story": false,
            "run_support_story": false,
            "is_linked_to_chart": false,
            "selection_made": true
        },
        "drivers": {},
        "analytics": {},
        "relationships": {}
    }
}