{
    "metadata": {
        "platform": "keboola"
    },
    "data": {
        "measures": [
            { "name": "shares", "id": "shares" },
            { "name": "fans", "id": "fans" },
            { "name": "likes", "id": "likes" }
        ],
        "dimensions": [
            { "name": "date", "id": "date" }
        ],
        "rows": [
            [{ "value": "2017-03-27", "id": 1 }, { "value": 0, "id": 2 }, { "value": 1953, "id": 3 }, { "value": 2, "id": 4 }],
            [{ "value": "2017-03-28", "id": 5 }, { "value": 1, "id": 6 }, { "value": 1953, "id": 7 }, { "value": 2, "id": 8 }],
            [{ "value": "2017-03-29", "id": 9 }, { "value": 0, "id": 10 }, { "value": 1958, "id": 11 }, { "value": 0, "id": 12 }],
            [{ "value": "2017-03-30", "id": 13 }, { "value": 0, "id": 14 }, { "value": 1958, "id": 15 }, { "value": 0, "id": 16 }],
            [{ "value": "2017-03-31", "id": 17 }, { "value": 0, "id": 18 }, { "value": 1958, "id": 19 }, { "value": 1, "id": 20 }],
            [{ "value": "2017-04-01", "id": 21 }, { "value": 0, "id": 22 }, { "value": 1957, "id": 23 }, { "value": 0, "id": 24 }],
            [{ "value": "2017-04-02", "id": 25 }, { "value": 0, "id": 26 }, { "value": 1957, "id": 27 }, { "value": 13, "id": 28 }],
            [{ "value": "2017-04-03", "id": 29 }, { "value": 0, "id": 30 }, { "value": 1959, "id": 31 }, { "value": 7, "id": 32 }],
            [{ "value": "2017-04-04", "id": 33 }, { "value": 0, "id": 34 }, { "value": 1961, "id": 35 }, { "value": 1, "id": 36 }],
            [{ "value": "2017-04-05", "id": 37 }, { "value": 1, "id": 38 }, { "value": 1962, "id": 39 }, { "value": 2, "id": 40 }],
            [{ "value": "2017-04-06", "id": 41 }, { "value": 0, "id": 42 }, { "value": 1964, "id": 43 }, { "value": 4, "id": 44 }],
            [{ "value": "2017-04-07", "id": 45 }, { "value": 0, "id": 46 }, { "value": 1965, "id": 47 }, { "value": 7, "id": 48 }],
            [{ "value": "2017-04-08", "id": 49 }, { "value": 0, "id": 50 }, { "value": 1967, "id": 51 }, { "value": 0, "id": 52 }],
            [{ "value": "2017-04-09", "id": 53 }, { "value": 0, "id": 54 }, { "value": 1968, "id": 55 }, { "value": 0, "id": 56 }],
            [{ "value": "2017-04-10", "id": 57 }, { "value": 0, "id": 58 }, { "value": 1968, "id": 59 }, { "value": 1, "id": 60 }],
            [{ "value": "2017-04-11", "id": 61 }, { "value": 0, "id": 62 }, { "value": 1969, "id": 63 }, { "value": 0, "id": 64 }],
            [{ "value": "2017-04-12", "id": 65 }, { "value": 0, "id": 66 }, { "value": 1968, "id": 67 }, { "value": 2, "id": 68 }],
            [{ "value": "2017-04-13", "id": 69 }, { "value": 2, "id": 70 }, { "value": 1969, "id": 71 }, { "value": 5, "id": 72 }],
            [{ "value": "2017-04-14", "id": 73 }, { "value": 0, "id": 74 }, { "value": 1970, "id": 75 }, { "value": 0, "id": 76 }],
            [{ "value": "2017-04-15", "id": 77 }, { "value": 0, "id": 78 }, { "value": 1969, "id": 79 }, { "value": 0, "id": 80 }],
            [{ "value": "2017-04-16", "id": 81 }, { "value": 0, "id": 82 }, { "value": 1970, "id": 83 }, { "value": 0, "id": 84 }],
            [{ "value": "2017-04-17", "id": 85 }, { "value": 0, "id": 86 }, { "value": 1972, "id": 87 }, { "value": 0, "id": 88 }],
            [{ "value": "2017-04-18", "id": 89 }, { "value": 0, "id": 90 }, { "value": 1972, "id": 91 }, { "value": 1, "id": 92 }],
            [{ "value": "2017-04-19", "id": 93 }, { "value": 0, "id": 94 }, { "value": 1972, "id": 95 }, { "value": 2, "id": 96 }],
            [{ "value": "2017-04-20", "id": 97 }, { "value": 0, "id": 98 }, { "value": 1972, "id": 99 }, { "value": 0, "id": 100 }],
            [{ "value": "2017-04-21", "id": 101 }, { "value": 0, "id": 102 }, { "value": 1973, "id": 103 }, { "value": 0, "id": 104 }],
            [{ "value": "2017-04-22", "id": 105 }, { "value": 0, "id": 106 }, { "value": 1975, "id": 107 }, { "value": 0, "id": 108 }],
            [{ "value": "2017-04-23", "id": 109 }, { "value": 0, "id": 110 }, { "value": 1976, "id": 111 }, { "value": 0, "id": 112 }],
            [{ "value": "2017-04-24", "id": 113 }, { "value": 1, "id": 114 }, { "value": 1974, "id": 115 }, { "value": 2, "id": 116 }],
            [{ "value": "2017-04-25", "id": 117 }, { "value": 1, "id": 118 }, { "value": 1975, "id": 119 }, { "value": 1, "id": 120 }],
            [{ "value": "2017-04-26", "id": 121 }, { "value": 0, "id": 122 }, { "value": 1975, "id": 123 }, { "value": 0, "id": 124 }],
            [{ "value": "2017-04-27", "id": 125 }, { "value": 0, "id": 126 }, { "value": 1976, "id": 127 }, { "value": 0, "id": 128 }],
            [{ "value": "2017-03-27", "id": 129 }, { "value": 0, "id": 130 }, { "value": 1953, "id": 131 }, { "value": 2, "id": 132 }],
            [{ "value": "2017-03-28", "id": 133 }, { "value": 1, "id": 134 }, { "value": 1953, "id": 135 }, { "value": 2, "id": 136 }],
            [{ "value": "2017-03-29", "id": 137 }, { "value": 0, "id": 138 }, { "value": 1958, "id": 139 }, { "value": 0, "id": 140 }],
            [{ "value": "2017-03-30", "id": 141 }, { "value": 0, "id": 142 }, { "value": 1958, "id": 143 }, { "value": 0, "id": 144 }],
            [{ "value": "2017-03-31", "id": 145 }, { "value": 0, "id": 146 }, { "value": 1958, "id": 147 }, { "value": 1, "id": 148 }],
            [{ "value": "2017-04-01", "id": 149 }, { "value": 0, "id": 150 }, { "value": 1957, "id": 151 }, { "value": 0, "id": 152 }],
            [{ "value": "2017-04-02", "id": 153 }, { "value": 0, "id": 154 }, { "value": 1957, "id": 155 }, { "value": 13, "id": 156 }],
            [{ "value": "2017-04-03", "id": 157 }, { "value": 0, "id": 158 }, { "value": 1959, "id": 159 }, { "value": 7, "id": 160 }],
            [{ "value": "2017-04-04", "id": 161 }, { "value": 0, "id": 162 }, { "value": 1961, "id": 163 }, { "value": 1, "id": 164 }],
            [{ "value": "2017-04-05", "id": 165 }, { "value": 1, "id": 166 }, { "value": 1962, "id": 167 }, { "value": 2, "id": 168 }],
            [{ "value": "2017-04-06", "id": 169 }, { "value": 0, "id": 170 }, { "value": 1964, "id": 171 }, { "value": 4, "id": 172 }],
            [{ "value": "2017-04-07", "id": 173 }, { "value": 0, "id": 174 }, { "value": 1965, "id": 175 }, { "value": 7, "id": 176 }],
            [{ "value": "2017-04-08", "id": 177 }, { "value": 0, "id": 178 }, { "value": 1967, "id": 179 }, { "value": 0, "id": 180 }],
            [{ "value": "2017-04-09", "id": 181 }, { "value": 0, "id": 182 }, { "value": 1968, "id": 183 }, { "value": 0, "id": 184 }],
            [{ "value": "2017-04-10", "id": 185 }, { "value": 0, "id": 186 }, { "value": 1968, "id": 187 }, { "value": 1, "id": 188 }],
            [{ "value": "2017-04-11", "id": 189 }, { "value": 0, "id": 190 }, { "value": 1969, "id": 191 }, { "value": 0, "id": 192 }],
            [{ "value": "2017-04-12", "id": 193 }, { "value": 0, "id": 194 }, { "value": 1968, "id": 195 }, { "value": 2, "id": 196 }],
            [{ "value": "2017-04-13", "id": 197 }, { "value": 2, "id": 198 }, { "value": 1969, "id": 199 }, { "value": 5, "id": 200 }],
            [{ "value": "2017-04-14", "id": 201 }, { "value": 0, "id": 202 }, { "value": 1970, "id": 203 }, { "value": 0, "id": 204 }],
            [{ "value": "2017-04-15", "id": 205 }, { "value": 0, "id": 206 }, { "value": 1969, "id": 207 }, { "value": 0, "id": 208 }],
            [{ "value": "2017-04-16", "id": 209 }, { "value": 0, "id": 210 }, { "value": 1970, "id": 211 }, { "value": 0, "id": 212 }],
            [{ "value": "2017-04-17", "id": 213 }, { "value": 0, "id": 214 }, { "value": 1972, "id": 215 }, { "value": 0, "id": 216 }],
            [{ "value": "2017-04-18", "id": 217 }, { "value": 0, "id": 218 }, { "value": 1972, "id": 219 }, { "value": 1, "id": 220 }],
            [{ "value": "2017-04-19", "id": 221 }, { "value": 0, "id": 222 }, { "value": 1972, "id": 223 }, { "value": 2, "id": 224 }],
            [{ "value": "2017-04-20", "id": 225 }, { "value": 0, "id": 226 }, { "value": 1972, "id": 227 }, { "value": 0, "id": 228 }],
            [{ "value": "2017-04-21", "id": 229 }, { "value": 0, "id": 230 }, { "value": 1973, "id": 231 }, { "value": 0, "id": 232 }],
            [{ "value": "2017-04-22", "id": 233 }, { "value": 0, "id": 234 }, { "value": 1975, "id": 235 }, { "value": 0, "id": 236 }],
            [{ "value": "2017-04-23", "id": 237 }, { "value": 0, "id": 238 }, { "value": 1976, "id": 239 }, { "value": 0, "id": 240 }],
            [{ "value": "2017-04-24", "id": 241 }, { "value": 1, "id": 242 }, { "value": 1974, "id": 243 }, { "value": 2, "id": 244 }],
            [{ "value": "2017-04-25", "id": 245 }, { "value": 1, "id": 246 }, { "value": 1975, "id": 247 }, { "value": 1, "id": 248 }],
            [{ "value": "2017-04-26", "id": 249 }, { "value": 0, "id": 250 }, { "value": 1975, "id": 251 }, { "value": 0, "id": 252 }],
            [{ "value": "2017-04-27", "id": 253 }, { "value": 0, "id": 254 }, { "value": 1976, "id": 255 }, { "value": 0, "id": 256 }],
            [{ "value": "2017-03-27", "id": 257 }, { "value": 0, "id": 258 }, { "value": 1953, "id": 259 }, { "value": 2, "id": 260 }],
            [{ "value": "2017-03-28", "id": 261 }, { "value": 1, "id": 262 }, { "value": 1953, "id": 263 }, { "value": 2, "id": 264 }],
            [{ "value": "2017-03-29", "id": 265 }, { "value": 0, "id": 266 }, { "value": 1958, "id": 267 }, { "value": 0, "id": 268 }],
            [{ "value": "2017-03-30", "id": 269 }, { "value": 0, "id": 270 }, { "value": 1958, "id": 271 }, { "value": 0, "id": 272 }],
            [{ "value": "2017-03-31", "id": 273 }, { "value": 0, "id": 274 }, { "value": 1958, "id": 275 }, { "value": 1, "id": 276 }],
            [{ "value": "2017-04-01", "id": 277 }, { "value": 0, "id": 278 }, { "value": 1957, "id": 279 }, { "value": 0, "id": 280 }],
            [{ "value": "2017-04-02", "id": 281 }, { "value": 0, "id": 282 }, { "value": 1957, "id": 283 }, { "value": 13, "id": 284 }],
            [{ "value": "2017-04-03", "id": 285 }, { "value": 0, "id": 286 }, { "value": 1959, "id": 287 }, { "value": 7, "id": 288 }],
            [{ "value": "2017-04-04", "id": 289 }, { "value": 0, "id": 290 }, { "value": 1961, "id": 291 }, { "value": 1, "id": 292 }],
            [{ "value": "2017-04-05", "id": 293 }, { "value": 1, "id": 294 }, { "value": 1962, "id": 295 }, { "value": 2, "id": 296 }],
            [{ "value": "2017-04-06", "id": 297 }, { "value": 0, "id": 298 }, { "value": 1964, "id": 299 }, { "value": 4, "id": 300 }],
            [{ "value": "2017-04-07", "id": 301 }, { "value": 0, "id": 302 }, { "value": 1965, "id": 303 }, { "value": 7, "id": 304 }],
            [{ "value": "2017-04-08", "id": 305 }, { "value": 0, "id": 306 }, { "value": 1967, "id": 307 }, { "value": 0, "id": 308 }],
            [{ "value": "2017-04-09", "id": 309 }, { "value": 0, "id": 310 }, { "value": 1968, "id": 311 }, { "value": 0, "id": 312 }],
            [{ "value": "2017-04-10", "id": 313 }, { "value": 0, "id": 314 }, { "value": 1968, "id": 315 }, { "value": 1, "id": 316 }],
            [{ "value": "2017-04-11", "id": 317 }, { "value": 0, "id": 318 }, { "value": 1969, "id": 319 }, { "value": 0, "id": 320 }],
            [{ "value": "2017-04-12", "id": 321 }, { "value": 0, "id": 322 }, { "value": 1968, "id": 323 }, { "value": 2, "id": 324 }],
            [{ "value": "2017-04-13", "id": 325 }, { "value": 2, "id": 326 }, { "value": 1969, "id": 327 }, { "value": 5, "id": 328 }],
            [{ "value": "2017-04-14", "id": 329 }, { "value": 0, "id": 330 }, { "value": 1970, "id": 331 }, { "value": 0, "id": 332 }],
            [{ "value": "2017-04-15", "id": 333 }, { "value": 0, "id": 334 }, { "value": 1969, "id": 335 }, { "value": 0, "id": 336 }],
            [{ "value": "2017-04-16", "id": 337 }, { "value": 0, "id": 338 }, { "value": 1970, "id": 339 }, { "value": 0, "id": 340 }],
            [{ "value": "2017-04-17", "id": 341 }, { "value": 0, "id": 342 }, { "value": 1972, "id": 343 }, { "value": 0, "id": 344 }],
            [{ "value": "2017-04-18", "id": 345 }, { "value": 0, "id": 346 }, { "value": 1972, "id": 347 }, { "value": 1, "id": 348 }],
            [{ "value": "2017-04-19", "id": 349 }, { "value": 0, "id": 350 }, { "value": 1972, "id": 351 }, { "value": 2, "id": 352 }],
            [{ "value": "2017-04-20", "id": 353 }, { "value": 0, "id": 354 }, { "value": 1972, "id": 355 }, { "value": 0, "id": 356 }],
            [{ "value": "2017-04-21", "id": 357 }, { "value": 0, "id": 358 }, { "value": 1973, "id": 359 }, { "value": 0, "id": 360 }],
            [{ "value": "2017-04-22", "id": 361 }, { "value": 0, "id": 362 }, { "value": 1975, "id": 363 }, { "value": 0, "id": 364 }],
            [{ "value": "2017-04-23", "id": 365 }, { "value": 0, "id": 366 }, { "value": 1976, "id": 367 }, { "value": 0, "id": 368 }],
            [{ "value": "2017-04-24", "id": 369 }, { "value": 1, "id": 370 }, { "value": 1974, "id": 371 }, { "value": 2, "id": 372 }],
            [{ "value": "2017-04-25", "id": 373 }, { "value": 1, "id": 374 }, { "value": 1975, "id": 375 }, { "value": 1, "id": 376 }],
            [{ "value": "2017-04-26", "id": 377 }, { "value": 0, "id": 378 }, { "value": 1975, "id": 379 }, { "value": 0, "id": 380 }],
            [{ "value": "2017-04-27", "id": 381 }, { "value": 0, "id": 382 }, { "value": 1976, "id": 383 }, { "value": 0, "id": 384 }],
            [{ "value": "2017-03-28", "id": 385 }, { "value": 1, "id": 386 }, { "value": 1953, "id": 387 }, { "value": 2, "id": 388 }],
            [{ "value": "2017-03-29", "id": 389 }, { "value": 0, "id": 390 }, { "value": 1958, "id": 391 }, { "value": 0, "id": 392 }],
            [{ "value": "2017-03-30", "id": 393 }, { "value": 0, "id": 394 }, { "value": 1958, "id": 395 }, { "value": 0, "id": 396 }],
            [{ "value": "2017-03-31", "id": 397 }, { "value": 0, "id": 398 }, { "value": 1958, "id": 399 }, { "value": 1, "id": 400 }],
            [{ "value": "2017-04-01", "id": 401 }, { "value": 0, "id": 402 }, { "value": 1957, "id": 403 }, { "value": 0, "id": 404 }],
            [{ "value": "2017-04-02", "id": 405 }, { "value": 0, "id": 406 }, { "value": 1957, "id": 407 }, { "value": 13, "id": 408 }],
            [{ "value": "2017-04-03", "id": 409 }, { "value": 0, "id": 410 }, { "value": 1959, "id": 411 }, { "value": 7, "id": 412 }],
            [{ "value": "2017-04-04", "id": 413 }, { "value": 0, "id": 414 }, { "value": 1961, "id": 415 }, { "value": 1, "id": 416 }],
            [{ "value": "2017-04-05", "id": 417 }, { "value": 1, "id": 418 }, { "value": 1962, "id": 419 }, { "value": 2, "id": 420 }],
            [{ "value": "2017-04-06", "id": 421 }, { "value": 0, "id": 422 }, { "value": 1964, "id": 423 }, { "value": 4, "id": 424 }],
            [{ "value": "2017-04-07", "id": 425 }, { "value": 0, "id": 426 }, { "value": 1965, "id": 427 }, { "value": 7, "id": 428 }],
            [{ "value": "2017-04-08", "id": 429 }, { "value": 0, "id": 430 }, { "value": 1967, "id": 431 }, { "value": 0, "id": 432 }],
            [{ "value": "2017-04-09", "id": 433 }, { "value": 0, "id": 434 }, { "value": 1968, "id": 435 }, { "value": 0, "id": 436 }],
            [{ "value": "2017-04-10", "id": 437 }, { "value": 0, "id": 438 }, { "value": 1968, "id": 439 }, { "value": 1, "id": 440 }],
            [{ "value": "2017-04-11", "id": 441 }, { "value": 0, "id": 442 }, { "value": 1969, "id": 443 }, { "value": 0, "id": 444 }],
            [{ "value": "2017-04-12", "id": 445 }, { "value": 0, "id": 446 }, { "value": 1968, "id": 447 }, { "value": 2, "id": 448 }],
            [{ "value": "2017-04-13", "id": 449 }, { "value": 2, "id": 450 }, { "value": 1969, "id": 451 }, { "value": 5, "id": 452 }],
            [{ "value": "2017-04-14", "id": 453 }, { "value": 0, "id": 454 }, { "value": 1970, "id": 455 }, { "value": 0, "id": 456 }],
            [{ "value": "2017-04-15", "id": 457 }, { "value": 0, "id": 458 }, { "value": 1969, "id": 459 }, { "value": 0, "id": 460 }],
            [{ "value": "2017-04-16", "id": 461 }, { "value": 0, "id": 462 }, { "value": 1970, "id": 463 }, { "value": 0, "id": 464 }],
            [{ "value": "2017-04-17", "id": 465 }, { "value": 0, "id": 466 }, { "value": 1972, "id": 467 }, { "value": 0, "id": 468 }],
            [{ "value": "2017-04-18", "id": 469 }, { "value": 0, "id": 470 }, { "value": 1972, "id": 471 }, { "value": 1, "id": 472 }],
            [{ "value": "2017-04-19", "id": 473 }, { "value": 0, "id": 474 }, { "value": 1972, "id": 475 }, { "value": 2, "id": 476 }],
            [{ "value": "2017-04-20", "id": 477 }, { "value": 0, "id": 478 }, { "value": 1972, "id": 479 }, { "value": 0, "id": 480 }],
            [{ "value": "2017-04-21", "id": 481 }, { "value": 0, "id": 482 }, { "value": 1973, "id": 483 }, { "value": 0, "id": 484 }],
            [{ "value": "2017-04-22", "id": 485 }, { "value": 0, "id": 486 }, { "value": 1975, "id": 487 }, { "value": 0, "id": 488 }],
            [{ "value": "2017-04-23", "id": 489 }, { "value": 0, "id": 490 }, { "value": 1976, "id": 491 }, { "value": 0, "id": 492 }],
            [{ "value": "2017-04-24", "id": 493 }, { "value": 1, "id": 494 }, { "value": 1974, "id": 495 }, { "value": 2, "id": 496 }],
            [{ "value": "2017-04-25", "id": 497 }, { "value": 1, "id": 498 }, { "value": 1975, "id": 499 }, { "value": 1, "id": 500 }],
            [{ "value": "2017-04-26", "id": 501 }, { "value": 0, "id": 502 }, { "value": 1975, "id": 503 }, { "value": 0, "id": 504 }],
            [{ "value": "2017-04-27", "id": 505 }, { "value": 0, "id": 506 }, { "value": 1977, "id": 507 }, { "value": 0, "id": 508 }],
            [{ "value": "2017-04-28", "id": 509 }, { "value": 0, "id": 510 }, { "value": 1977, "id": 511 }, { "value": 0, "id": 512 }]
        ]
    },
    "api_version": 2,
    "configuration": { "authoring": { "complementary_story": false, "is_linked_to_chart": false, "run_support_story": false, "format": "bullets", "selection_made": true, "verbosity": "low" }, "analytics": { "aggregation": { "enabled": true, "index": 1 }, "population": { "enabled": true, "index": 0 }, "trendline": { "index": 1, "enabled": true }, "clustering": { "enabled": true, "index": 1 }, "correlation": { "enabled": true, "index": 1 }, "segments": { "index": 0, "enabled": true }, "volatility": { "index": 1, "enabled": true }, "distribution": { "enabled": true, "index": 0 } }, "relationships": {}, "drivers": {} }
}